<?xml version="1.0" standalone="no"?>
<!DOCTYPE svg PUBLIC "-//W3C//DTD SVG 1.1//EN" "http://www.w3.org/Graphics/SVG/1.1/DTD/svg11.dtd" >
<svg xmlns="http://www.w3.org/2000/svg">
<metadata>Generated by IcoMoon</metadata>
<defs>
<font id="icomoon" horiz-adv-x="1024">
<font-face units-per-em="1024" ascent="960" descent="-64" />
<missing-glyph horiz-adv-x="1024" />
<glyph unicode="&#x20;" horiz-adv-x="512" d="" />
<glyph unicode="&#xf00c;" glyph-name="check" d="M954.857 627.428c0-14.286-5.714-28.571-16-38.857l-491.429-491.429c-10.286-10.286-24.571-16-38.857-16s-28.571 5.714-38.857 16l-284.571 284.571c-10.286 10.286-16 24.571-16 38.857s5.714 28.571 16 38.857l77.714 77.714c10.286 10.286 24.571 16 38.857 16s28.571-5.714 38.857-16l168-168.571 374.857 375.429c10.286 10.286 24.571 16 38.857 16s28.571-5.714 38.857-16l77.714-77.714c10.286-10.286 16-24.571 16-38.857z" />
<glyph unicode="&#xf00d;" glyph-name="close" horiz-adv-x="805" d="M741.714 195.428c0-14.286-5.714-28.571-16-38.857l-77.714-77.714c-10.286-10.286-24.571-16-38.857-16s-28.571 5.714-38.857 16l-168 168-168-168c-10.286-10.286-24.571-16-38.857-16s-28.571 5.714-38.857 16l-77.714 77.714c-10.286 10.286-16 24.571-16 38.857s5.714 28.571 16 38.857l168 168-168 168c-10.286 10.286-16 24.571-16 38.857s5.714 28.571 16 38.857l77.714 77.714c10.286 10.286 24.571 16 38.857 16s28.571-5.714 38.857-16l168-168 168 168c10.286 10.286 24.571 16 38.857 16s28.571-5.714 38.857-16l77.714-77.714c10.286-10.286 16-24.571 16-38.857s-5.714-28.571-16-38.857l-168-168 168-168c10.286-10.286 16-24.571 16-38.857z" />
<glyph unicode="&#xf053;" glyph-name="chevron-left" horiz-adv-x="768" d="M669.143 778.857l-303.429-303.429 303.429-303.429c14.286-14.286 14.286-37.143 0-51.429l-94.857-94.857c-14.286-14.286-37.143-14.286-51.429 0l-424 424c-14.286 14.286-14.286 37.143 0 51.429l424 424c14.286 14.286 37.143 14.286 51.429 0l94.857-94.857c14.286-14.286 14.286-37.143 0-51.429z" />
<glyph unicode="&#xf054;" glyph-name="chevron-right" horiz-adv-x="695" d="M632.571 449.714l-424-424c-14.286-14.286-37.143-14.286-51.429 0l-94.857 94.857c-14.286 14.286-14.286 37.143 0 51.429l303.429 303.429-303.429 303.429c-14.286 14.286-14.286 37.143 0 51.429l94.857 94.857c14.286 14.286 37.143 14.286 51.429 0l424-424c14.286-14.286 14.286-37.143 0-51.429z" />
<glyph unicode="&#xf062;" glyph-name="arrow-up" horiz-adv-x="951"
	   d="M920.571 396c0-19.429-8-37.714-21.143-51.429l-42.857-42.857c-13.714-13.714-32.571-21.714-52-21.714s-38.286 8-51.429 21.714l-168 167.429v-402.286c0-41.143-34.286-66.857-73.143-66.857h-73.143c-38.857 0-73.143 25.714-73.143 66.857v402.286l-168-167.429c-13.143-13.714-32-21.714-51.429-21.714s-38.286 8-51.429 21.714l-42.857 42.857c-13.714 13.714-21.714 32-21.714 51.429s8 38.286 21.714 52l372 372c13.143 13.714 32 21.143 51.429 21.143s38.286-7.429 52-21.143l372-372c13.143-13.714 21.143-32.571 21.143-52z"/>
<glyph unicode="&#xf0c9;" glyph-name="bars" horiz-adv-x="878" d="M877.714 182.857v-73.143c0-20-16.571-36.571-36.571-36.571h-804.571c-20 0-36.571 16.571-36.571 36.571v73.143c0 20 16.571 36.571 36.571 36.571h804.571c20 0 36.571-16.571 36.571-36.571zM877.714 475.428v-73.143c0-20-16.571-36.571-36.571-36.571h-804.571c-20 0-36.571 16.571-36.571 36.571v73.143c0 20 16.571 36.571 36.571 36.571h804.571c20 0 36.571-16.571 36.571-36.571zM877.714 768v-73.143c0-20-16.571-36.571-36.571-36.571h-804.571c-20 0-36.571 16.571-36.571 36.571v73.143c0 20 16.571 36.571 36.571 36.571h804.571c20 0 36.571-16.571 36.571-36.571z" />
<glyph unicode="&#xf1c1;" glyph-name="file-pdf-o" horiz-adv-x="878" d="M838.857 733.714c21.143-21.143 38.857-63.429 38.857-93.714v-658.286c0-30.286-24.571-54.857-54.857-54.857h-768c-30.286 0-54.857 24.571-54.857 54.857v914.286c0 30.286 24.571 54.857 54.857 54.857h512c30.286 0 72.571-17.714 93.714-38.857zM585.143 873.143v-214.857h214.857c-3.429 9.714-8.571 19.429-12.571 23.429l-178.857 178.857c-4 4-13.714 9.143-23.429 12.571zM804.571 0v585.143h-237.714c-30.286 0-54.857 24.571-54.857 54.857v237.714h-438.857v-877.714h731.429zM510.857 338.857c14.286-11.429 30.286-21.714 48-32 24 2.857 46.286 4 66.857 4 38.286 0 86.857-4.571 101.143-28 4-5.714 7.429-16 1.143-29.714-0.571-0.571-1.143-1.714-1.714-2.286v-0.571c-1.714-10.286-10.286-21.714-40.571-21.714-36.571 0-92 16.571-140 41.714-79.429-8.571-162.857-26.286-224-47.429-58.857-100.571-104-149.714-138.286-149.714-5.714 0-10.857 1.143-16 4l-13.714 6.857c-1.714 0.571-2.286 1.714-3.429 2.857-2.857 2.857-5.143 9.143-3.429 20.571 5.714 26.286 36.571 70.286 107.429 107.429 4.571 2.857 10.286 1.143 13.143-3.429 0.571-0.571 1.143-1.714 1.143-2.286 17.714 29.143 38.286 66.286 61.143 112.571 25.714 51.429 45.714 101.714 59.429 149.714-18.286 62.286-24 126.286-13.714 164 4 14.286 12.571 22.857 24 22.857h12.571c8.571 0 15.429-2.857 20-8.571 6.857-8 8.571-20.571 5.143-38.857-0.571-1.714-1.143-3.429-2.286-4.571 0.571-1.714 0.571-2.857 0.571-4.571v-17.143c-0.571-36-1.143-70.286-8-109.714 20-60 49.714-108.571 83.429-136zM181.714 104c17.143 8 41.714 32.571 78.286 90.286-42.857-33.143-69.714-70.857-78.286-90.286zM409.143 629.714c-5.714-16-5.714-43.429-1.143-75.429 1.714 9.143 2.857 17.714 4 25.143 1.143 9.714 2.857 17.714 4 24.571 0.571 1.714 1.143 2.857 2.286 4.571-0.571 0.571-0.571 1.714-1.143 2.857-0.571 10.286-4 16.571-7.429 20.571 0-1.143-0.571-1.714-0.571-2.286zM338.286 252c50.286 20 106.286 36 162.286 46.286-5.714 4.571-11.429 8.571-16.571 13.143-28 24.571-53.143 58.857-72.571 100.571-10.857-34.857-26.857-72-47.429-112.571-8.571-16-17.143-32-25.714-47.429zM707.429 261.143c-2.857 2.857-17.714 13.714-80 13.714 28-10.286 53.714-16 70.857-16 5.143 0 8 0 10.286 0.571 0 0.571-0.571 1.143-1.143 1.714z" />
</font></defs></svg>
