<svg id="Flat" height="512" viewBox="0 0 512 512" width="512" xmlns="http://www.w3.org/2000/svg">
	<path d="m136 472a8 8 0 0 1 -8-8v-72a8 8 0 0 1 16 0v72a8 8 0 0 1 -8 8z" fill="#95573a"/>
	<path d="m216 472a8 8 0 0 1 -8-8v-72a8 8 0 0 1 16 0v72a8 8 0 0 1 -8 8z" fill="#95573a"/>
	<path d="m304 472a8 8 0 0 1 -8-8v-72a8 8 0 0 1 16 0v72a8 8 0 0 1 -8 8z" fill="#95573a"/>
	<path d="m384 472a8 8 0 0 1 -8-8v-72a8 8 0 0 1 16 0v72a8 8 0 0 1 -8 8z" fill="#95573a"/>
	<rect fill="#7e8589" height="256" rx="16" width="400" x="56" y="24"/>
	<path d="m88 56h336v192h-336z" fill="#414649"/>
	<path d="m456 248v16a16 16 0 0 1 -16 16h-368a16 16 0 0 1 -16-16v-16z" fill="#95573a"/>
	<path d="m88 56h336v192h-336z" fill="#414649"/>
	<path d="m120 232h80v48h-80z" fill="#f7b030"/>
	<path d="m24 328h464v32h-464z" fill="#95573a"/>
	<g fill="#694435">
		<path d="m48 360h32v128h-32z"/>
		<path d="m440 360h32v128h-32z"/>
		<path d="m112 320h128v72h-128z"/>
		<path d="m280 320h128v72h-128z"/>
		<path d="m112 456h128a0 0 0 0 1 0 0v16a16 16 0 0 1 -16 16h-96a16 16 0 0 1 -16-16v-16a0 0 0 0 1 0 0z" transform="matrix(-1 0 0 -1 352 944)"/>
		<path d="m280 456h128a0 0 0 0 1 0 0v16a16 16 0 0 1 -16 16h-96a16 16 0 0 1 -16-16v-16a0 0 0 0 1 0 0z" transform="matrix(-1 0 0 -1 688 944)"/>
	</g>
	<path d="m184 360h-16a8 8 0 0 1 0-16h16a8 8 0 0 1 0 16z" fill="#95573a"/>
	<path d="m352 360h-16a8 8 0 0 1 0-16h16a8 8 0 0 1 0 16z" fill="#95573a"/>
</svg>
