<svg id="Flat" height="512" viewBox="0 0 512 512" width="512" xmlns="http://www.w3.org/2000/svg">
    <path d="m152 152h336v208h-336z" fill="#2d85cc"/>
    <path d="m56 152h96a0 0 0 0 1 0 0v208a0 0 0 0 1 0 0h-96a32 32 0 0 1 -32-32v-144a32 32 0 0 1 32-32z" fill="#e1e3e6"/>
    <path d="m200 200h240v112h-240z" fill="#f7b030"/>
    <g fill="#ff8e26">
        <path d="m392 232h-112a8 8 0 0 0 0 16h112a8 8 0 0 0 0-16z"/>
        <path d="m392 264h-144a8 8 0 0 0 0 16h144a8 8 0 0 0 0-16z"/>
        <circle cx="248" cy="240" r="8"/>
    </g>
</svg>
