<svg id="Flat" height="512" viewBox="0 0 512 512" width="512" xmlns="http://www.w3.org/2000/svg">
	<path d="m48 144a8 8 0 0 0 -8 8v192a8 8 0 0 0 16 0v-192a8 8 0 0 0 -8-8z" fill="#4f5659"/>
	<path d="m400 256v-24h-288v24s-24 24-8 64h304c16-40-8-64-8-64z" fill="#95573a"/>
	<path d="m424 328c0 22.091-16.118 40-36 40s-36-17.909-36-40c0-20.589 14-37.789 32-40h4c19.882 0 36 17.909 36 40z" fill="#f0c6a4"/>
	<path d="m160 328c0 22.091-16.118 40-36 40s-36-17.909-36-40 16.118-40 36-40h4c18 2.211 32 19.411 32 40z" fill="#f0c6a4"/>
	<path d="m384 288v8a128 128 0 0 1 -256 0v-8c40 0 72-24 72-24 31.22 11.14 88.73 24 184 24z" fill="#f7cca9"/>
	<g fill="#452d23">
		<circle cx="216" cy="320" r="8"/>
		<circle cx="296" cy="320" r="8"/>
		<path d="m264 344h-16a8 8 0 0 1 -8-8v-16a8 8 0 0 1 16 0v8h8a8 8 0 0 1 0 16z"/>
		<path d="m256 384c-34.932 0-46.893-27.742-47.385-28.923a8 8 0 0 1 14.749-6.2c.388.887 8.681 19.123 32.636 19.123 24.385 0 32.536-18.886 32.615-19.077a8 8 0 1 1 14.77 6.154c-.492 1.183-12.453 28.923-47.385 28.923z"/>
	</g>
	<circle cx="48" cy="288" fill="#2d85cc" r="24"/>
	<path d="m112 216-88-74.667 232-53.333 232 53.333-88 74.667z" fill="#414649"/>
	<path d="m400 256s-72-20.8-144-20.8-144 20.8-144 20.8v-83.2s72-20.8 144-20.8 144 20.8 144 20.8z" fill="#2d85cc"/>
	<path d="m256 235.2c-72 0-144 20.8-144 20.8v-41.6s72-20.8 144-20.8 144 20.8 144 20.8v41.6s-72-20.8-144-20.8z" fill="#4f5659"/>
</svg>
