<svg id="Flat" height="512" viewBox="0 0 512 512" width="512" xmlns="http://www.w3.org/2000/svg">
	<path d="m48 168a8 8 0 0 0 -8 8v208a8 8 0 0 0 16 0v-208a8 8 0 0 0 -8-8z" fill="#4f5659"/>
	<path d="m112 281.6s72 20.8 144 20.8 144-20.8 144-20.8v-41.6h-288z" fill="#414649"/>
	<path d="m112 240-88-74.667 232-53.333 232 53.333-88 74.667z" fill="#414649"/>
	<path d="m400 280s-72-20.8-144-20.8-144 20.8-144 20.8v-83.2s72-20.8 144-20.8 144 20.8 144 20.8z" fill="#2d85cc"/>
	<path d="m256 259.2c-72 0-144 20.8-144 20.8v-41.6s72-20.8 144-20.8 144 20.8 144 20.8v41.6s-72-20.8-144-20.8z" fill="#4f5659"/>
	<circle cx="48" cy="328" fill="#2d85cc" r="24"/>
	<path d="m464 408h-64v-176-128h64v128z" fill="#e9eef2"/>
	<ellipse cx="432" cy="104" fill="#dadcde" rx="32" ry="24"/>
	<ellipse cx="432" cy="408" fill="#dadcde" rx="32" ry="24"/>
	<path d="m400 232h64v32h-64z" fill="#ffb632"/>
</svg>
