<svg id="Flat" height="512" viewBox="0 0 512 512" width="512" xmlns="http://www.w3.org/2000/svg">
	<path d="m216 248h48v176h-48z" fill="#d13330"/>
	<path d="m224 48h56a24.027 24.027 0 0 1 24 24v128a8 8 0 0 1 -16 0v-128a8.009 8.009 0 0 0 -8-8h-56z" fill="#f7b030"/>
	<path d="m272 248h-64c0-56 2.845-169.822 6.577-209.5a16 16 0 0 1 15.929-14.5h18.988a16 16 0 0 1 15.929 14.5c3.732 39.678 6.577 153.5 6.577 209.5z" fill="#d13330"/>
	<g fill="#f7b030">
		<path d="m266.74 56h-53.48c.42-6.77.87-12.68 1.32-17.5a15.994 15.994 0 0 1 15.93-14.5h18.98a15.994 15.994 0 0 1 15.93 14.5c.45 4.82.9 10.73 1.32 17.5z"/>
		<path d="m216 248h48v32h-48z"/>
		<path d="m240 488-24-64h48z"/>
	</g>
</svg>
