<svg id="Flat" height="512" viewBox="0 0 512 512" width="512" xmlns="http://www.w3.org/2000/svg">
	<path d="m256 104h32v304h-32z" fill="#eb423f"/>
	<path d="m224 104h32v304h-32z" fill="#f7b030"/>
	<path d="m224 408h64l-24.411 74.44a7.959 7.959 0 0 1 -15.178 0z" fill="#f0dfce"/>
	<path d="m272.26 456-8.67 26.44a7.962 7.962 0 0 1 -15.18 0l-8.67-26.44z" fill="#734b39"/>
	<path d="m224 72h64v32h-64z" fill="#734b39"/>
	<path d="m240 24h32a16 16 0 0 1 16 16v32a0 0 0 0 1 0 0h-64a0 0 0 0 1 0 0v-32a16 16 0 0 1 16-16z" fill="#e1e3e6"/>
</svg>
