<svg id="Flat" height="512" viewBox="0 0 512 512" width="512" xmlns="http://www.w3.org/2000/svg">
	<path d="m24 88h464v336h-464z" fill="#2d85cc"/>
	<circle cx="256" cy="256" fill="#f7b030" r="48"/>
	<path d="m248 88h16v336h-16z" fill="#1261a0"/>
	<path d="m472 136h16a0 0 0 0 1 0 0v240a0 0 0 0 1 0 0h-16a120 120 0 0 1 -120-120 120 120 0 0 1 120-120z" fill="#eb423f"/>
	<path d="m408 216h80v80h-80z" fill="#f7b030"/>
	<path d="m144 136h16a0 0 0 0 1 0 0v240a0 0 0 0 1 0 0h-16a120 120 0 0 1 -120-120 120 120 0 0 1 120-120z" fill="#eb423f" transform="matrix(-1 0 0 -1 184 512)"/>
	<path d="m24 216h80v80h-80z" fill="#f7b030" transform="matrix(-1 0 0 -1 128 512)"/>
</svg>
