<svg id="Flat" height="512" viewBox="0 0 512 512" width="512" xmlns="http://www.w3.org/2000/svg">
	<path d="m192 24h128v464h-128z" fill="#2d85cc"/>
	<g fill="#c3c6c7">
		<path d="m192 56h16a8 8 0 0 1 0 16h-16z"/>
		<path d="m320 120h-16a8 8 0 0 1 0-16h16z"/>
		<path d="m320 184h-16a8 8 0 0 1 0-16h16z"/>
		<path d="m192 88h16a8 8 0 0 1 0 16h-16z"/>
		<path d="m208 136h-16v-16h16a8 8 0 0 1 0 16z"/>
		<path d="m208 168h-16v-16h16a8 8 0 0 1 0 16z"/>
		<path d="m192 184h16a8 8 0 0 1 0 16h-16z"/>
		<path d="m208 232h-16v-16h16a8 8 0 0 1 0 16z"/>
		<path d="m192 248h16a8 8 0 0 1 0 16h-16z"/>
		<path d="m192 280h16a8 8 0 0 1 0 16h-16z"/>
		<path d="m192 312h16a8 8 0 0 1 0 16h-16z"/>
		<path d="m208 360h-16v-16h16a8 8 0 0 1 0 16z"/>
		<path d="m208 392h-16v-16h16a8 8 0 0 1 0 16z"/>
		<path d="m208 424h-16v-16h16a8 8 0 0 1 0 16z"/>
		<path d="m208 456h-16v-16h16a8 8 0 0 1 0 16z"/>
		<path d="m320 88h-40a8 8 0 0 1 0-16h40z"/>
		<path d="m320 152h-40a8 8 0 0 1 0-16h40z"/>
		<path d="m320 248h-16a8 8 0 0 1 0-16h16z"/>
		<path d="m320 216h-40a8 8 0 0 1 0-16h40z"/>
		<path d="m320 312h-16a8 8 0 0 1 0-16h16z"/>
		<path d="m320 280h-40a8 8 0 0 1 0-16h40z"/>
		<path d="m320 376h-16a8 8 0 0 1 0-16h16z"/>
		<path d="m320 344h-40a8 8 0 0 1 0-16h40z"/>
		<path d="m320 440h-16a8 8 0 0 1 0-16h16z"/>
		<path d="m320 408h-40a8 8 0 0 1 0-16h40z"/>
	</g>
	<path d="m232 24h16v464h-16z" fill="#1261a0"/>
</svg>
