<svg id="Flat" height="512" viewBox="0 0 512 512" width="512" xmlns="http://www.w3.org/2000/svg">
	<path d="m256 24h16a16 16 0 0 1 16 16v72a0 0 0 0 1 0 0h-48a0 0 0 0 1 0 0v-72a16 16 0 0 1 16-16z" fill="#1261a0"/>
	<path d="m112 24h16a16 16 0 0 1 16 16v72a0 0 0 0 1 0 0h-48a0 0 0 0 1 0 0v-72a16 16 0 0 1 16-16z" fill="#1261a0"/>
	<path d="m80 280h224v208h-224z" fill="#1261a0"/>
	<path d="m160 72h64a80 80 0 0 1 80 80v128a0 0 0 0 1 0 0h-224a0 0 0 0 1 0 0v-128a80 80 0 0 1 80-80z" fill="#eb423f"/>
	<path d="m224 184a31.973 31.973 0 1 1 -1.01-8 32 32 0 0 1 1.01 8z" fill="#d13330"/>
	<path d="m80 280h224v32h-224z" fill="#2d85cc"/>
	<path d="m112 312h160v144h-160z" fill="#e9eef2"/>
	<g fill="#962523">
		<path d="m200 153.01v6.99a8 8 0 0 1 -16 0v-6.99a32.188 32.188 0 0 1 16 0z"/>
		<path d="m224 184a32 32 0 0 1 -1.01 8h-14.99a8 8 0 0 1 0-16h14.99a32 32 0 0 1 1.01 8z"/>
		<path d="m200 208v6.99a32.188 32.188 0 0 1 -16 0v-6.99a8 8 0 0 1 16 0z"/>
		<path d="m184 184a8 8 0 0 1 -8 8h-14.99a32.188 32.188 0 0 1 0-16h14.99a8 8 0 0 1 8 8z"/>
	</g>
	<path d="m208 112h-32a8 8 0 0 1 0-16h32a8 8 0 0 1 0 16z" fill="#f7b030"/>
	<path d="m160 312h64v32h-64z" fill="#f7b030"/>
	<path d="m304 152h32v64h-32z" fill="#1261a0"/>
	<path d="m368 272h48a16 16 0 0 1 16 16 16 16 0 0 1 -16 16h-48a0 0 0 0 1 0 0v-32a0 0 0 0 1 0 0z" fill="#eb423f"/>
	<path d="m368 168h-32v32h32v72h32v-88a16 16 0 0 0 -16-16z" fill="#eb423f"/>
</svg>
