<svg id="Flat" height="512" viewBox="0 0 512 512" width="512" xmlns="http://www.w3.org/2000/svg">
	<path d="m24 152h464v32h-464z" fill="#95573a"/>
	<path d="m24 184h32v240h-32z" fill="#694435"/>
	<path d="m456 184h32v240h-32z" fill="#694435"/>
	<path d="m328 184h128v88h-128z" fill="#7a4830"/>
	<path d="m408 224h-32a8 8 0 0 1 0-16h32a8 8 0 0 1 0 16z" fill="#95573a"/>
	<path d="m56 184h272v32h-272z" fill="#8c5237"/>
	<path d="m112 176h32v248h-32z" fill="#95573a"/>
	<path d="m240 184h32v240h-32z" fill="#95573a"/>
	<g fill="#694435">
		<path d="m112 264h160a16 16 0 0 1 16 16v16a0 0 0 0 1 0 0h-192a0 0 0 0 1 0 0v-16a16 16 0 0 1 16-16z"/>
		<path d="m128 88h128a16 16 0 0 1 16 16v80a0 0 0 0 1 0 0h-160a0 0 0 0 1 0 0v-80a16 16 0 0 1 16-16z"/>
	</g>
</svg>
